ApplicationMgr    SUCCESS
====================================================================================================================================
====================================================================================================================================
ApplicationMgr       INFO Application Manager Configured successfully
DetectorPersist...   INFO Added successfully Conversion service:XmlCnvSvc
DetectorDataSvc   SUCCESS Detector description database: git:/lhcb.xml
EventPersistenc...   INFO Added successfully Conversion service:RootCnvSvc
ApplicationMgr       INFO Application Manager Initialized successfully
ApplicationMgr       INFO Application Manager Started successfully
EventSelector     SUCCESS Reading Event record 1. Record number within stream 1: 1
EventSelector     SUCCESS Reading Event record 11. Record number within stream 1: 11
EventSelector     SUCCESS Reading Event record 21. Record number within stream 1: 21
EventSelector     SUCCESS Reading Event record 31. Record number within stream 1: 31
EventSelector     SUCCESS Reading Event record 41. Record number within stream 1: 41
EventSelector     SUCCESS Reading Event record 51. Record number within stream 1: 51
EventSelector     SUCCESS Reading Event record 61. Record number within stream 1: 61
EventSelector     SUCCESS Reading Event record 71. Record number within stream 1: 71
EventSelector     SUCCESS Reading Event record 81. Record number within stream 1: 81
EventSelector     SUCCESS Reading Event record 91. Record number within stream 1: 91
ApplicationMgr       INFO Application Manager Stopped successfully
EventLoopMgr         INFO Histograms converted successfully according to request.
ToolSvc              INFO Removing all tools created by ToolSvc
ApplicationMgr       INFO Application Manager Finalized successfully
ApplicationMgr       INFO Application Manager Terminated successfully
SelectionMaker       INFO Number of counters : 1
 |    Counter                                      |     #     |    sum     | mean/eff^* | rms/err^*  |     min     |     max     |
 | "# input objects"                               |       100 |
ToolSvc.HybridF...   INFO Number of counters : 1
 |    Counter                                      |     #     |    sum     | mean/eff^* | rms/err^*  |     min     |     max     |
 | "# loaded from PYTHON"                          |         2 |
TwoBodyCombiner      INFO Number of counters : 4
 |    Counter                                      |     #     |    sum     | mean/eff^* | rms/err^*  |     min     |     max     |
 |*"# passed combination cut"                      |   1025615 |        156 |(0.01521039 +- 0.001217713)% |
 |*"# passed vertex cut"                           |       156 |        127 |( 81.41026 +- 3.114684)% |
 |*"# passed vertex fit"                           |       156 |        156 |( 100.0000 +- 0.000000)% |
 | "Nb created combinations"                       |       100 |    1025615 |    10256.0 |     0.0000 |      378.00 |     77815.0 |
UnpackTrack          INFO Number of counters : 1
 |    Counter                                      |     #     |    sum     | mean/eff^* | rms/err^*  |     min     |     max     |
 | "# Unpacked Tracks"                             |       100 |      12386 |     123.86 |     72.766 |      28.000 |      395.00 |
